<?xml version="1.0" encoding="UTF-8" standalone="no"?>
<svg
   width="412.24991pt"
   height="432pt"
   viewBox="0 0 412.24991 432"
   version="1.1"
   id="svg350"
   sodipodi:docname="chemist.svg.2023_04_27_00_32_32.0.svg"
   inkscape:version="1.2.2 (732a01da63, 2022-12-09)"
   xmlns:inkscape="http://www.inkscape.org/namespaces/inkscape"
   xmlns:sodipodi="http://sodipodi.sourceforge.net/DTD/sodipodi-0.dtd"
   xmlns="http://www.w3.org/2000/svg"
   xmlns:svg="http://www.w3.org/2000/svg">
  <defs
     id="defs354" />
  <sodipodi:namedview
     id="namedview352"
     pagecolor="#ffffff"
     bordercolor="#cccccc"
     borderopacity="1"
     inkscape:showpageshadow="0"
     inkscape:pageopacity="1"
     inkscape:pagecheckerboard="0"
     inkscape:deskcolor="#d1d1d1"
     inkscape:document-units="pt"
     showgrid="false"
     inkscape:zoom="0.17285156"
     inkscape:cx="1538.8927"
     inkscape:cy="685.55932"
     inkscape:current-layer="svg350" />
</svg>
